locale	subject
cmn-Hans-CN	材料性质
cmn-Latn-CN	cáiliào xìngzhì
deu-Latn-DE	Materialeigenschaften [f-pl]
eng-Latn-US	material properties
fra-Latn-FR	propriétés d’un matériau
jpn-Hrkt-JP	ざいりょうとくせい
jpn-Jpan-JP	材料特性
rus-Cyrl-RU	сво́йства [с-мн] материа́ла
