locale	concept	prerequisite
cmn-Hans-CN	玻尔模型	
cmn-Latn-CN	Bō’ěr móxíng	
deu-Latn-DE	bohrsche Atommodell	
eng-Latn-US	Bohr model . Rutherford–Bohr model	
fra-Latn-FR	modèle [m] de Bohr	
jpn-Hrkt-JP	ボーアのげんしもけい	
jpn-Jpan-JP	ボーアの原子模型	
rus-Cyrl-RU	Бо́ровская моде́ль а́тома . моде́ль Бо́ра . моде́ль Бо́ра — Резерфо́рда	
