locale	concept	prerequisite
cmn-Hans-CN	双射	
cmn-Latn-CN	shuāngshè	
deu-Latn-DE	Bijektion . bijektive Funktion	
eng-Latn-US	bijection . bijective function . invertible function	
fra-Latn-FR	bijection	
jpn-Hrkt-JP	ぜんたんしゃ . そうしゃ	
jpn-Jpan-JP	全単射 . 双射	
rus-Cyrl-RU	бие́кция	
