locale	concept	prerequisite
cmn-Hans-CN	连续统	
cmn-Latn-CN	liánxùtǒng	
deu-Latn-DE	Kontinuum	
eng-Latn-US	continuum	
fra-Latn-FR	continu [m]	
jpn-Hrkt-JP	れんぞくたい	
jpn-Jpan-JP	連続体	
rus-Cyrl-RU	конти́нуум	
