locale	concept	prerequisite
cmn-Hans-CN	对称差	
cmn-Latn-CN	duìchènchā	
deu-Latn-DE	symmetrische Differenz	
eng-Latn-US	disjunctive union . symmetric difference	
fra-Latn-FR	différence symétrique	
jpn-Hrkt-JP	たいしょうさ	
jpn-Jpan-JP	対称差	
rus-Cyrl-RU	симметри́ческая ра́зность	
