locale	concept	prerequisite
cmn-Hans-CN	列举法	
cmn-Latn-CN	lièjǔfǎ	
deu-Latn-DE	Aufzählung	
eng-Latn-US	enumeration	
fra-Latn-FR	énumération	
jpn-Hrkt-JP	かぞえあげ	
jpn-Jpan-JP	数え上げ	
rus-Cyrl-RU	перечисле́ние	
