locale	concept	prerequisite
cmn-Hans-CN	函数	集 . 集合 _ 二元关系
cmn-Latn-CN	hánshù	jí . jíhé _ èryuán guānxi
deu-Latn-DE	Funktion	Menge _ binäre Relation
eng-Latn-US	function	binary relation _ set
fra-Latn-FR	fonction	ensemble [m] _ relation binaire
