locale	concept	prerequisite
cmn-Hans-CN	弹性势能	势能 . 位能 _ 弹性变形
cmn-Latn-CN	tánxìng shìnéng	shìnéng . wèìnéng _ tánxìng biànxíng
deu-Latn-DE	Formänderungsenergie . Verformungsenergie . Verzerrungsenergie . elastische Energie	 _ Lageenergie . potentielle Energie . potenzielle Energie
eng-Latn-US	elastic energy	elastic deformation _ potential energy
fra-Latn-FR	énergie potentielle élastique	 _ énergie potentielle
jpn-Hrkt-JP	だんせいエネルギー	 _ いちエネルギー
jpn-Jpan-JP	弾性エネルギー	 _ 位置エネルギー
rus-Cyrl-RU	упру́гая потенциа́льная эне́ргия	 _ потенциа́льная эне́ргия
