locale	concept	prerequisite
cmn-Hans-CN	速度	方向导数 _ 速率 _ 物理实体 . 物体
cmn-Latn-CN	sùdù	fāngxiàng dǎoshù _ sùlǜ _ wùlǐ shítǐ . wùtǐ
deu-Latn-DE	Geschwindigkeit	Richtungsableitung _ Schnelligkeit _ physikalischer Körper
eng-Latn-US	velocity	directional derivative _ physical body . physical object _ speed
fra-Latn-FR	vecteur vitesse . vélocité	corps [m] physique _ dérivée directionnelle _ vitesse
jpn-Hrkt-JP	そくど	はやさ _ ぶったい _ ほうこうびぶん
jpn-Jpan-JP	速度	速さ _ 物体 _ 方向微分
rus-Cyrl-RU	ско́рость	произво́дная по направле́нию _ ско́рость движе́ния _ те́ло в фи́зике . физи́ческий объе́кт . физи́ческое те́ло
zxx-Zmth-ZZ	bbv . vecv	 _  _ v
