locale	concept	prerequisite
cmn-Hans-CN	拜尔滤色镜	
cmn-Latn-CN	Bài’ěr lǜsèjìng	
deu-Latn-DE	Bayer-Sensor	
eng-Latn-US	Bayer filter	
jpn-Hrkt-JP	ベイヤーフィルター	
jpn-Jpan-JP	ベイヤーフィルター	
rus-Cyrl-RU	фильтр Ба́йера	
