locale	concept	prerequisite
cmn-Hans-CN	有线电视	
cmn-Latn-CN	yǒuxiàn diànshì	
deu-Latn-DE	Kabelfernsehen	
eng-Latn-US	cable television	
fra-Latn-FR	télédistribution par câble . télévision par câble [m]	
jpn-Hrkt-JP	ケーブルテレビ	
jpn-Jpan-JP	ケーブルテレビ	
rus-Cyrl-RU	ка́бельное телеви́дение	
