locale	concept	prerequisite
cmn-Hans-CN	数字音频	
cmn-Latn-CN	shùzì yīnpín	
deu-Latn-DE	Digitalaudio [n]	
eng-Latn-US	digital audio	
fra-Latn-FR	son numérique	
jpn-Hrkt-JP	デジタルオーディオ	
jpn-Jpan-JP	デジタルオーディオ	
