locale	concept	prerequisite
cmn-Hans-CN	电流电压转换器 . 转阻放大器	
cmn-Latn-CN	diànliú diànyā zhuǎnhuànqì . zhuǎnzǔ fàngdàqì	
deu-Latn-DE	Transimpedanzverstärker	
eng-Latn-US	transimpedance amplifier	
fra-Latn-FR	amplificateur à transimpédance	
jpn-Hrkt-JP	トランスインピーダンスアンプ	
jpn-Jpan-JP	トランスインピーダンスアンプ	
