locale	concept	prerequisite
cmn-Hans-CN	罗尔定理 . 罗尔中值定理	
cmn-Latn-CN	Luó’ěr dìnglǐ . Luó’ěr zhōngzhí dìnglǐ	
deu-Latn-DE	Satz [m] von Rolle	
eng-Latn-US	Rolle’s lemma . Rolle’s theorem	
fra-Latn-FR	lemme [m] de Rolle . théorème de Rolle	
jpn-Hrkt-JP	ロルのていり	
jpn-Jpan-JP	ロルの定理	
rus-Cyrl-RU	теоре́ма Ро́лля	
