locale	concept	prerequisite
cmn-Hans-CN	帕斯卡计算器 . 滚轮式加法器	
cmn-Latn-CN	Pàsīkǎ jìsuànqì . gǔnlúnshì jiāfǎqì	
deu-Latn-DE	Pascaline	
eng-Latn-US	Pascaline . Pascal’s calculator . arithmetic machine	
fra-Latn-FR	machine d’arithmétique . pascaline . roue [f] pascaline	
jpn-Hrkt-JP	パスカリン	
jpn-Jpan-JP	パスカリン	
rus-Cyrl-RU	Паскали́на . суммирующая машина Паска́ля	
