locale	concept	prerequisite
cmn-Hans-CN	对数计算尺 . 计算尺	 _ 对数（运算）
cmn-Latn-CN	duìshù jìsuànchǐ . jìsuànchǐ	 _ duìshù (yùnsuàn)
deu-Latn-DE	Rechenschieber . Rechenstab [m]	 _ Logarithmus (Operation)
eng-Latn-US	slide rule	 _ logarithm (operation)
fra-Latn-FR	règle [f] à calcul . règle [f] à calculer	 _ logarithme [m] (opération)
jpn-Hrkt-JP	けいさんじゃく	 _ たいすう（えんざん）
jpn-Jpan-JP	計算尺	 _ 対数（演算）
rus-Cyrl-RU	логарифми́ческая лине́йка . счётная линейка	 _ логари́фм (опера́ция)
