locale	concept	prerequisite
cmn-Hans-CN	周长	
cmn-Latn-CN	zhōucháng	
deu-Latn-DE	Umfang [m]	
eng-Latn-US	perimeter	
fra-Latn-FR	périmètre [m]	
jpn-Hrkt-JP	しゅうちょう	
jpn-Jpan-JP	周長	
rus-Cyrl-RU	пери́метр	
