locale	concept	prerequisite
cmn-Hans-CN	顶点	
cmn-Latn-CN	dǐngdiǎn	
deu-Latn-DE	Ecke . Eckpunkt [m]	
eng-Latn-US	vertex [vertices . vertexes] (geometry)	point
fra-Latn-FR	sommet (géométrie)	
jpn-Hrkt-JP	ちょうてん	
jpn-Jpan-JP	頂点	
rus-Cyrl-RU	верши́на (геоме́трия)	
