locale	concept	prerequisite
cmn-Hans-CN	电负性	
cmn-Latn-CN	diànfùxìng	
deu-Latn-DE	Elektronegativität	
eng-Latn-US	electronegativity	
fra-Latn-FR	électronégativité	
jpn-Hrkt-JP	でんきいんせいど	
jpn-Jpan-JP	電気陰性度	
rus-Cyrl-RU	эле́ктроотрица́тельность	
