locale	concept	prerequisite
cmn-Hans-CN	电子亲合能 . 电子亲和势	
cmn-Latn-CN	diànzǐ qínhé néng . diànzǐ qínhé shì	
deu-Latn-DE	Elektronenaffinität	
eng-Latn-US	electron affinity	
fra-Latn-FR	affinité électronique	
jpn-Hrkt-JP	でんししんわりょく	
jpn-Jpan-JP	電子親和力	
rus-Cyrl-RU	сродство́ к электро́ну . эне́ргия сродства́ к электро́ну	
