locale	concept	prerequisite
cmn-Hans-CN	不溶性	
cmn-Latn-CN	bùróngxìng	
deu-Latn-DE	Unlöslichkeit	
eng-Latn-US	insolubility	
fra-Latn-FR	insolubilité	
jpn-Hrkt-JP	ふようせい	
jpn-Jpan-JP	不溶性	
rus-Cyrl-RU	нераствори́мость	
