locale	concept	prerequisite
cmn-Hans-CN	减法	
cmn-Latn-CN	jiǎnfǎ	
deu-Latn-DE	Subtraktion	
eng-Latn-US	subtraction	
fra-Latn-FR	soustraction	
jpn-Hrkt-JP	げんぽう	
jpn-Jpan-JP	減法	
pes-Aran-IR	تَفریق، مِنها	
rus-Cyrl-RU	вычита́ние	
zxx-Zmth-ZZ	-	
