locale	concept	prerequisite
cmn-Hans-CN	惯性	力 _ 运动
cmn-Latn-CN	guànxìng	lì _ yùndòng
deu-Latn-DE	Beharrungsvermögen . Trägheit	Bewegung _ Kraft [f]
eng-Latn-US	inertia	force _ motion
fra-Latn-FR	inertie	force _ mouvement
jpn-Hrkt-JP	かんせい	うんどう _ ちから
jpn-Jpan-JP	慣性	運動 _ 力
rus-Cyrl-RU	ине́рция	движе́ние _ си́ла
