locale	concept	prerequisite
cmn-Hans-CN	必要条件	
cmn-Latn-CN	bìyào tiáojiàn	
deu-Latn-DE	notwendige Bedingung	
eng-Latn-US	necessary condition	
fra-Latn-FR	condition nécessaire	
jpn-Hrkt-JP	ひつようじょうけん	
jpn-Jpan-JP	必要条件	
rus-Cyrl-RU	необходи́мое усло́вие	
