locale	concept	prerequisite
cmn-Hans-CN	狄利克雷级数	
cmn-Latn-CN	Dílìkèléi jíshù	
deu-Latn-DE	Dirichletreihe	
eng-Latn-US	Dirichlet series	
fra-Latn-FR	série [f] de Dirichlet	
jpn-Hrkt-JP	ディリクレきゅうすう	
jpn-Jpan-JP	ディリクレ級数	
rus-Cyrl-RU	ряд Дирихле́	
