locale	concept	prerequisite
cmn-Hans-CN	洛朗级数	
cmn-Latn-CN	Luòlǎng jíshù	
deu-Latn-DE	Laurent-Reihe	
eng-Latn-US	Laurent series	
fra-Latn-FR	série [m] de Laurent	
jpn-Hrkt-JP	ローランきゅうすう	
jpn-Jpan-JP	ローラン級数	
rus-Cyrl-RU	ряд Лорана	
