locale	concept	prerequisite
cmn-Hans-CN	电解	
cmn-Latn-CN	diànjiě	
deu-Latn-DE	Elektrolyse	
eng-Latn-US	electrolysis	
fra-Latn-FR	électrolyse [f]	
jpn-Hrkt-JP	でんかい . でんきぶんかい	
jpn-Jpan-JP	電解 . 電気分解	
rus-Cyrl-RU	электро́лиз	
