locale	concept	prerequisite
cmn-Hans-CN	泡利不相容原理 . 泡利原理 . 不相容原理	
cmn-Latn-CN	Pàolì bùxiāngróng yuánlǐ . Pàolì yuánlǐ . bùxiāngróng yuánlǐ	
deu-Latn-DE	Pauli-Prinzip [n] . Pauli-Verbot [n] . paulisches Ausschließungsprinzip [n]	
eng-Latn-US	Pauli exclusion principle	
fra-Latn-FR	principe [m] d’exclusion de Pauli	
jpn-Hrkt-JP	パウリのていり . パウリのはいたげんり . パウリのはいたりつ	
jpn-Jpan-JP	パウリの定理 . パウリの排他原理 . パウリの排他律	
rus-Cyrl-RU	при́нцип запре́та Па́ули . при́нцип исключе́ния Па́ули	
