locale	concept	prerequisite
cmn-Hans-CN	电池 . 电池组	
cmn-Latn-CN	diànchí . diànchízǔ	
deu-Latn-DE	Batterie (Elektrotechnik)	
eng-Latn-US	electric battery	
fra-Latn-FR	pile [f] électrique	
jpn-Hrkt-JP	でんち	
jpn-Jpan-JP	電池	
rus-Cyrl-RU	батаре́я (электроте́хника)	
