locale	concept	prerequisite
cmn-Hans-CN	线性组合	
cmn-Latn-CN	xiànxìng zǔhé	
deu-Latn-DE	Linearkombination	
eng-Latn-US	linear combination	
fra-Latn-FR	combinaison linéaire	
jpn-Hrkt-JP	せんけいけつごう	
jpn-Jpan-JP	線型結合	
rus-Cyrl-RU	лине́йная комбина́ция	
