locale	concept	prerequisite
cmn-Hans-CN	漏电保护器	
cmn-Latn-CN	lòudiàn bǎohùqì	
deu-Latn-DE	Differenzstrom-Schutzschalter . Fehlerstrom-Schutzschalter	
eng-Latn-US	ground fault circuit interrupter . residual-current circuit breaker . residual-current device	
fra-Latn-FR	dispositif différentiel à courant résiduel	
rus-Cyrl-RU	устро́йство дифференциа́льного то́ка	
