locale	concept	prerequisite
cmn-Hans-CN	天平	
cmn-Latn-CN	tiānpíng	
deu-Latn-DE	Waage	
eng-Latn-US	mass balance . mass scale . weight balance . weight scale	
fra-Latn-FR	balance (instrument)	
jpn-Hrkt-JP	てんびんばかり	
jpn-Jpan-JP	天秤ばかり	
rus-Cyrl-RU	весы́	
