locale	concept	prerequisite
cmn-Hans-CN	环形	
cmn-Latn-CN	huánxíng	
deu-Latn-DE	Kreisring	
eng-Latn-US	annulus [annuli]	
fra-Latn-FR	couronne	
jpn-Hrkt-JP	えんかん . アニュラス	
jpn-Jpan-JP	円環 . アニュラス	
rus-Cyrl-RU	кольцо́	
