locale	concept	prerequisite
cmn-Hans-CN	弓形	
cmn-Latn-CN	gōngxíng	
deu-Latn-DE	Kreisabschnitt [m] . Kreissegment	
eng-Latn-US	circular segment . disk segment	
fra-Latn-FR	segment circulaire	
jpn-Hrkt-JP	ゆみがた	
jpn-Jpan-JP	弓形	
rus-Cyrl-RU	сегме́нт	
zxx-Zmth-ZZ	⌔	
