locale	concept	prerequisite
cmn-Hans-CN	步进电动机	
cmn-Latn-CN	bùjìn diàndòngjī	
deu-Latn-DE	Schrittmotor	
eng-Latn-US	step motor . stepper motor . stepping motor	
fra-Latn-FR	moteur pas à pas	
jpn-Hrkt-JP	ステッピングモーター	
jpn-Jpan-JP	ステッピングモーター	
rus-Cyrl-RU	ша́говый электродви́гатель	
