locale	subject
cmn-Hans-CN	代数数论
cmn-Latn-CN	dàishù shùlùn
deu-Latn-DE	algebraische Zahlentheorie
eng-Latn-US	algebraic number theory
fra-Latn-FR	théorie algébrique des nombres [m-pl]
jpn-Hrkt-JP	だいすうてきせいすうろん
jpn-Jpan-JP	代数的整数論
rus-Cyrl-RU	алгебраи́ческая тео́рия чи́сел
