locale	concept	prerequisite
cmn-Hans-CN	流星体	
cmn-Latn-CN	liúxīngtǐ	
deu-Latn-DE	Meteoroid [m]	
eng-Latn-US	meteroid	
fra-Latn-FR	météoroïde [m]	
jpn-Hrkt-JP	りゅうせいたい . りゅうせいぶっしつ	
jpn-Jpan-JP	流星体 . 流星物質	
rus-Cyrl-RU	метео́рное тело . метеоро́ид	
