locale	concept	prerequisite
cmn-Hans-CN	辛普森法则 . 辛普森积分法	
cmn-Latn-CN	Xīnpǔsēn fǎzé . Xīnpǔsēn jīfēnfǎ	
deu-Latn-DE	Simpsonregel [f] . simpson’sche Formel	
eng-Latn-US	Simpson’s rule	
fra-Latn-FR	méthode [f] de Simpson	
jpn-Hrkt-JP	シンプソンぞく	
jpn-Jpan-JP	シンプソン則	
rus-Cyrl-RU	фо́рмула Нью́тона/Ньюто́на-Си́мпсона . фо́рмула Си́мпсона	
