locale	concept	prerequisite
cmn-Hans-CN	单端初级电感转换器	
cmn-Latn-CN	dānduān chūjí diàngǎn zhuǎnhuànqì	
deu-Latn-DE	SEPIC [n]	
eng-Latn-US	single-ended primary-inductor converter	
fra-Latn-FR	convertisseur SEPIC	
