locale	concept	prerequisite
cmn-Hans-CN	数字（单个符号）	
cmn-Latn-CN	shùzì (dāngè fúhào)	
deu-Latn-DE	Zahlsymbol [n] . Zahlzeichen	
eng-Latn-US	numerical digit	
fra-Latn-FR	chiffre [m] (symbole individuel)	
jpn-Hrkt-JP	すうじ（ここのふごう）	
jpn-Jpan-JP	数字（個々の符号）	
rus-Cyrl-RU	ци́фры	
