locale	concept	prerequisite
cmn-Hans-CN	百分数	分数
cmn-Latn-CN	bǎifēnshù	fēnshù
deu-Latn-DE	Prozentsatz [m]	Bruch [m]
eng-Latn-US	percentage	fraction
fra-Latn-FR	pourcent	fraction
jpn-Hrkt-JP	ひゃくぶんりつ . パーセント	ぶんすう
jpn-Jpan-JP	百分率 . パーセント	分数
rus-Cyrl-RU	проце́нт	дробь
