locale	concept	prerequisite
cmn-Hans-CN	数值修约	 _ 数
cmn-Latn-CN	shùzhí xiūyuē	 _ shù
deu-Latn-DE	Runden . Rundung	 _ Zahl [f] (abstrakte Identität)
eng-Latn-US	rounding	 _ number (abstract identity)
fra-Latn-FR	arrondi [m]	 _ nombre [m]
jpn-Hrkt-JP	はすうしょり	 _ かず
jpn-Jpan-JP	端数処理	 _ 数
rus-Cyrl-RU	округле́ние	 _ число́ (абстра́ктная иденти́чность)
