locale	concept	prerequisite
cmn-Hans-CN	色差	
cmn-Latn-CN	sèchā	
deu-Latn-DE	chromatische Aberration	
eng-Latn-US	chromatic aberration . spherochromatism	
fra-Latn-FR	aberration chromatique	
jpn-Hrkt-JP	いろしゅうさ	
jpn-Jpan-JP	色収差	
rus-Cyrl-RU	хромати́ческая аберра́ция	
