locale	concept	prerequisite
cmn-Hans-CN	凹透镜	
cmn-Latn-CN	āotòujìng	
deu-Latn-DE	Hohllinse . Konkavlinse . konkave Linse	
eng-Latn-US	concave lens	
fra-Latn-FR	lentille [f] concave	
jpn-Hrkt-JP	おうレンズ	
jpn-Jpan-JP	凹レンズ	
rus-Cyrl-RU	во́гнутая ли́нза	
