locale	concept	prerequisite
cmn-Hans-CN	凸透镜	
cmn-Latn-CN	tūtòujìng	
deu-Latn-DE	Konvexlinse . konvexe Linse	
eng-Latn-US	convex lens	
fra-Latn-FR	lentille [f] convexe	
jpn-Hrkt-JP	とつレンズ	
jpn-Jpan-JP	凸レンズ	
rus-Cyrl-RU	вы́пуклая ли́нза	
