locale	concept	prerequisite
cmn-Hans-CN	球面像差	
cmn-Latn-CN	qiúmiàn xiàngchā	
deu-Latn-DE	Kugelgestaltsfehler . sphärische Aberration . Öffnungsfehler	
eng-Latn-US	spherical aberration	
jpn-Hrkt-JP	きゅうめんしゅうさ	
jpn-Jpan-JP	球面収差	
rus-Cyrl-RU	сфери́ческая аберра́ция	
