locale	concept	prerequisite
cmn-Hans-CN	耀斑	
cmn-Latn-CN	yàobān	
deu-Latn-DE	Sonneneruption	
eng-Latn-US	solar flare	
fra-Latn-FR	éruption chromosphérique . éruption solaire	
jpn-Hrkt-JP	たいようフレア	
jpn-Jpan-JP	太陽フレア	
pes-Aran-IR	شرارهٔ خورشیدی	
rus-Cyrl-RU	со́лнечная вспы́шка	
