locale	concept	prerequisite
cmn-Hans-CN	蒸馏	
cmn-Latn-CN	zhēngliú	
deu-Latn-DE	Distillation	
eng-Latn-US	distillation	
fra-Latn-FR	distillation	
jpn-Hrkt-JP	じょうりゅう	
jpn-Jpan-JP	蒸留	
rus-Cyrl-RU	дистилля́ция	
