locale	concept	prerequisite
cmn-Hans-CN	正切定理	
cmn-Latn-CN	zhèngqiē dìnglǐ	
deu-Latn-DE	Regel [f] von Napier . Tangenssatz [m] . Tangentensatz [m]	
eng-Latn-US	law of tangents . tangent rule	
fra-Latn-FR	loi [f] des tangentes	
jpn-Hrkt-JP	せいせつていり	
jpn-Jpan-JP	正接定理	
rus-Cyrl-RU	теоре́ма та́нгенсов	
