locale	concept	prerequisite
cmn-Hans-CN	形变	物理实体 . 物体
cmn-Latn-CN	xíngbiàn	wùlǐ shítǐ . wùtǐ
deu-Latn-DE	Deformation . Verformung . Verzerrung	physikalischer Körper
eng-Latn-US	deformation	physical body . physical object
fra-Latn-FR	déformation des matériaux [m-pl]	corps [m] physique
jpn-Hrkt-JP	へんけい	ぶったい
jpn-Jpan-JP	変形	物体
rus-Cyrl-RU	деформа́ция	те́ло в фи́зике . физи́ческий объе́кт . физи́ческое те́ло
