locale	concept	prerequisite
cmn-Hans-CN	乘数	乘法 _ 运算数 . 运算元
cmn-Latn-CN	chéngshù	chéngfǎ _ yùnsuànshù . yùnsuànyuán
deu-Latn-DE	MultiplikatorGeneralnenn	Multiplikation _ Operand [m]
eng-Latn-US	multiplier	multiplication _ operand
fra-Latn-FR	multiplicateur	multiplication _ opérande [m]
jpn-Hrkt-JP	じょうすう	じょうほう _ ひえんざんし
jpn-Jpan-JP	乗数	乗法 _ 被演算子
rus-Cyrl-RU	мно́житель	опера́нд _ умноже́ние
