locale	concept	prerequisite
cmn-Hans-CN	发散度 . 散度	
cmn-Latn-CN	fāsàndù . sǎndù	
deu-Latn-DE	Divergenz eines Vektorfeldes	
eng-Latn-US	divergence (vector analysis)	
fra-Latn-FR	divergence (analyse vectorielle)	
jpn-Hrkt-JP	はっさん（ベクトルかいせき）	
jpn-Jpan-JP	発散（ベクトル解析）	
rus-Cyrl-RU	диверге́нция	
