locale	concept	prerequisite
cmn-Hans-CN	发明式的问题解决理论	
cmn-Latn-CN	fāmíngsì de wèntí jiějué lǐlùn	
deu-Latn-DE	Theorie des erfinderischen Problemlösens	
eng-Latn-US	theory of inventive problem solving	
fra-Latn-FR	théorie de résolution des problèmes inventifs	
rus-Cyrl-RU	тео́рия реше́ния изобрета́тельских зада́ч	
