locale	subject
cmn-Hans-CN	组合数学
cmn-Latn-CN	zǔhé shùxué
deu-Latn-DE	Kombinatorik
eng-Latn-US	combinatorics
fra-Latn-FR	analyse [f] combinatoire . combinatoire [f]
jpn-Hrkt-JP	くみあわせすうがく . くみあわせろん
jpn-Jpan-JP	組合せ数学 . 組合せ論
rus-Cyrl-RU	комбинато́рика
