locale	concept	prerequisite
cmn-Hans-CN	希尔伯特变换	
cmn-Latn-CN	Xī’ěrbótè biànhuàn	
deu-Latn-DE	Hilbert-Transformation	
eng-Latn-US	Hilbert transform	
fra-Latn-FR	transformation de Hilbert	
jpn-Hrkt-JP	ヒルベルトへんかん	
jpn-Jpan-JP	ヒルベルト変換	
rus-Cyrl-RU	преобразова́ние Ги́льберта	
zxx-Zmth-ZZ	ccHil	
