locale	concept	prerequisite
cmn-Hans-CN	拉普拉斯变换	
cmn-Latn-CN	Lāpǔlāsī biànhuàn	
deu-Latn-DE	Laplace-Transformation	
eng-Latn-US	Laplace transform	
fra-Latn-FR	transformation de Laplace	
jpn-Hrkt-JP	ラプラスへんかん	
jpn-Jpan-JP	ラプラス変換	
rus-Cyrl-RU	преобразова́ние Лапла́са	
zxx-Zmth-ZZ	ccL	
