locale	subject
cmn-Hans-CN	连续介质力学
cmn-Latn-CN	liánxù jièzhì lìxué
deu-Latn-DE	Kontinuumsmechanik
eng-Latn-US	continuum mechanics
fra-Latn-FR	mécanique [f] des milieux continus
jpn-Hrkt-JP	れんぞくたいりきがく
jpn-Jpan-JP	連続体力学
rus-Cyrl-RU	меха́ника сплошны́х сре
