locale	concept	prerequisite
cmn-Hans-CN	工字梁	梁
cmn-Latn-CN	gōngzìliáng	liáng
eng-Latn-US	H-beam . I-beam . rolled steel joist . universal beam . universal column . w-beam	beam
rus-Cyrl-RU	двута́вр	ба́лка
