locale	concept	prerequisite
cmn-Hans-CN	导数	
cmn-Latn-CN	dǎoshù	
deu-Latn-DE	Ableitungsfunktion	
eng-Latn-US	derivative	
fra-Latn-FR	dérivée	
jpn-Hrkt-JP	どうかんすう	
jpn-Jpan-JP	導関数	
rus-Cyrl-RU	произво́дная фу́нкции	
