locale	concept	prerequisite
cmn-Hans-CN	微分算子	
cmn-Latn-CN	wēifēn suànzǐ	
deu-Latn-DE	Differentialoperator	
eng-Latn-US	differential operator	
fra-Latn-FR	opérateur différentiel	
jpn-Hrkt-JP	びぶんさようそ	
jpn-Jpan-JP	微分作用素	
rus-Cyrl-RU	дифференциа́льный опера́тор	
