locale	concept	prerequisite
cmn-Hans-CN	偏微分方程	
cmn-Latn-CN	piānwēifēn fāngchéng	
deu-Latn-DE	partielle Differentialgleichung	
eng-Latn-US	partial differential equation	
fra-Latn-FR	équation aux dérivées partielles . équation différentielle partielle	
jpn-Hrkt-JP	へんびぶんほうていしき	
jpn-Jpan-JP	偏微分方程式	
rus-Cyrl-RU	дифференциа́льное уравне́ние в ча́стных произво́дных	
