locale	concept	prerequisite
cmn-Hans-CN	平方微米	
cmn-Latn-CN	píngfāng wēimǐ	
deu-Latn-DE	Quadratmikrometer	
eng-Latn-US	square micrometer	
fra-Latn-FR	micromètre carré	
jpn-Hrkt-JP	へいほうマイクロメートル	
jpn-Jpan-JP	平方マイクロメートル	
