locale	concept	prerequisite
cmn-Hans-CN	液态	
cmn-Latn-CN	yètài	
deu-Latn-DE	Flüssigzustand [m] . flüssiger Zustand	
eng-Latn-US	liquid state	
fra-Latn-FR	état liquide	
jpn-Hrkt-JP	えきたいじょうたい	
jpn-Jpan-JP	液体状態	
rus-Cyrl-RU	жи́дкое состоя́ние	
