locale	concept	prerequisite
cmn-Hans-CN	电磁场	
cmn-Latn-CN	diàncíchǎng	
deu-Latn-DE	elektromagnetisches Feld	
eng-Latn-US	electromagnetic field	
fra-Latn-FR	champ électromagnétique	
jpn-Hrkt-JP	でんじば	
jpn-Jpan-JP	電磁場	
rus-Cyrl-RU	электромагни́тное по́ле	
