locale	concept	prerequisite
cmn-Hans-CN	杰斐缅柯方程	 _ 磁场 _ 电场 _ 电流密度
cmn-Latn-CN	Jiéfěimiǎnkē fāngchéng	 _ cíchǎng _ diànchǎng _ diànliú mìdù
eng-Latn-US	Jefimenko’s equations	charge density _ current density _ electric field _ magnetic field
jpn-Hrkt-JP	ジェフィメンコほうていしき	 _ じかい . じば _ でんかい . でんば _ でんりゅうみつど
jpn-Jpan-JP	ジェフィメンコ方程式	 _ 磁界 . 磁場 _ 電界 . 電場 _ 電流密度
rus-Cyrl-RU	уравне́ния Ефиме́нко	 _  _ Электри́ческое по́ле _ магни́тное по́ле
