locale	concept	prerequisite
cmn-Hans-CN	伦敦方程	
cmn-Latn-CN	Lúndūn fāngchéng	
deu-Latn-DE	London-Gleichungen	
eng-Latn-US	London equations	
fra-Latn-FR	équations de Maxwell-London	
jpn-Hrkt-JP	ロンドンほうていしき	
jpn-Jpan-JP	ロンドン方程式	
