locale	concept	prerequisite
cmn-Hans-CN	力学平衡	
cmn-Latn-CN	lìxué pínghéng	
deu-Latn-DE	Kräftegleichgewicht [f] . mechanische Gleichgewicht	
eng-Latn-US	mechanical equilibrium	
fra-Latn-FR	équilibre [m] statique	
jpn-Hrkt-JP	りきがくてきへいこう	
jpn-Jpan-JP	力学的平衡	
rus-Cyrl-RU	механи́ческое равнове́сие	
