locale	subject
cmn-Hans-CN	经济学
cmn-Latn-CN	jīngjìxué
deu-Latn-DE	Wirtschaftswissenschaft . Ökonomie
eng-Latn-US	economics
fra-Latn-FR	science économique . économie . économie politique
jpn-Hrkt-JP	けいざいがく [3]
jpn-Jpan-JP	経済学
kor-Hang-KR	경제학
kor-Kore-KR	經濟學
rus-Cyrl-RU	полити́ческая нау́ка . политоло́гия
