locale	concept	prerequisite
cmn-Hans-CN	加性高斯白噪声	
cmn-Latn-CN	jiāxìng Gāosī báizàoshēng	
deu-Latn-DE	additives weißes gaußsches Rauschen	
eng-Latn-US	additive white Gaussian noise	
jpn-Hrkt-JP	かさんせいはくしょくがうすざつおん	
jpn-Jpan-JP	加算性白色ガウス雑音	
rus-Cyrl-RU	аддити́вный бе́лый гауссовский шум	
