locale	subject
cmn-Hans-CN	形式逻辑
cmn-Latn-CN	xíngshì luóji
deu-Latn-DE	formale Logik
eng-Latn-US	formal logic
fra-Latn-FR	logique formelle
jpn-Hrkt-JP	けいしきろんり
jpn-Jpan-JP	形式論理
rus-Cyrl-RU	форма́льная ло́гика
