locale	concept	prerequisite
cmn-Hans-CN	伦琴射线 . X射线	 _ 电磁辐射
cmn-Latn-CN	Lúnqín shèxiàn . X shèxiàn	 _ diàncí fúshè
deu-Latn-DE	Röntgenstrahl [m] . Röntgenstrahlung	 _ elektromagnetische Strahlung . elektromagnetische Welle
eng-Latn-US	X-radiation . X-ray	 _ electromagnetic radiation
fra-Latn-FR	rayon X	 _ rayonnement électromagnétique
jpn-Hrkt-JP	エックスせん . レントゲンせん	 _ でんじほうしゃせん
jpn-Jpan-JP	X線 . レントゲン線せん	 _ 電磁放射線
rus-Cyrl-RU	рентге́новское излуче́ние	 _ электромагни́тная волна́ . электромагни́тное излуче́ние
