locale	concept	prerequisite
deu-Latn-DE	Williams-Kilburn-Röhre . Williamsröhre	
eng-Latn-US	Williams tube . Williams–Kilburn tube	
fra-Latn-FR	tube [m] de Williams . tube [m] de Williams-Kilburn	
jpn-Hrkt-JP	ウィリアムスかん . ウィリアムス－キルバーンかん	
jpn-Jpan-JP	ウィリアムス管 . ウィリアムス－キルバーン管	
