locale	concept	prerequisite
cmn-Hans-CN	反相器 . 功率逆变器 . 逆变流器 . 逆变器 . 逆换流器	
cmn-Latn-CN	fǎnxiàngqì . gōnglǜ nìbiànqì . nì biànliúqì . nìbiànqì . nìhuànliúqì	
deu-Latn-DE	Drehrichter . Inverter . Wechselrichter	
eng-Latn-US	power inverter . power invertor	
fra-Latn-FR	onduleur	
jpn-Hrkt-JP	ぎゃくへんかんかいろ . ぎゃくへんかんそうち . インバータ	
jpn-Jpan-JP	逆変換回路 . 逆変換装置 . インバータ	
rus-Cyrl-RU	инве́ртор (электроте́хника)	
