locale	concept	prerequisite
cmn-Hans-CN	摆	
cmn-Latn-CN	bǎi	
deu-Latn-DE	Pendel [n] . Schwerependel [n]	
eng-Latn-US	pendulum	
fra-Latn-FR	pendule [m]	
jpn-Hrkt-JP	ふりこ	
jpn-Jpan-JP	振り子	
rus-Cyrl-RU	ма́ятник	
