locale	subject
cmn-Hans-CN	经典力学
cmn-Latn-CN	jīngdiǎn lìxué
deu-Latn-DE	Newton’sche Mechanik . klassische Mechanik
eng-Latn-US	classcial mechanics
fra-Latn-FR	mécanique newtonienne . méchanique [f] classique
jpn-Hrkt-JP	こてんりきがく
jpn-Jpan-JP	古典力学
rus-Cyrl-RU	класси́ческая меха́ник
