locale	concept	prerequisite
cmn-Hans-CN	合金	化学元素 _ 混合物 _ 金属
cmn-Latn-CN	héjīn	huàxué yuánsù _ hùnhéwù _ jīnshǔ
deu-Latn-DE	Legierung	Gemisch [n] . Stoffgemisch [n] _ Metalle _ chemisches Element
eng-Latn-US	alloy	chemical element _ metal _ mixture
fra-Latn-FR	alliage	mélange [m] _ métal _ élément chimique
jpn-Hrkt-JP	ごうきん	きんぞく _ げんそ _ こんごうぶつ
jpn-Jpan-JP	合金	金属 _ 元素 _ 混合物
rus-Cyrl-RU	сплав	мета́ллы _ смесь _ хими́ческий элеме́нт
