locale	concept	prerequisite
cmn-Hans-CN	抗弯强度	
cmn-Latn-CN	kàngwān qiángdù	
eng-Latn-US	bend strength . flexural strength . modulus of rupture . transverse rupture strength	
jpn-Hrkt-JP	まげつよさ	
jpn-Jpan-JP	曲げ強さ	
