locale	concept	prerequisite
cmn-Hans-CN	压入硬度	硬度
cmn-Latn-CN	yārù yìngdù	yìngdù
deu-Latn-DE	Druckhärte . Eindruckhärte	Härte
eng-Latn-US	indentation hardness	hardness
fra-Latn-FR	dureté d’indentation	dureté
jpn-Hrkt-JP	おしこみかたさ	かたさ
jpn-Jpan-JP	押込み硬さ	硬さ
