locale	concept	prerequisite
cmn-Hans-CN	顺磁性	
cmn-Latn-CN	shùncíxìng	
deu-Latn-DE	Paramagnetismus	
eng-Latn-US	paramagnetism	
fra-Latn-FR	paramagnétisme	
jpn-Hrkt-JP	じょうじせい	
jpn-Jpan-JP	常磁性	
rus-Cyrl-RU	парамагне́тики	
