locale	concept	prerequisite
cmn-Hans-CN	渐近线	
cmn-Latn-CN	jiànjìnxiàn	
deu-Latn-DE	Asymptote	
eng-Latn-US	asymptote	
fra-Latn-FR	asymptote	
jpn-Hrkt-JP	ぜんきんせん	
jpn-Jpan-JP	漸近線	
rus-Cyrl-RU	асимпто́та/аси́мптота	
