locale	concept	prerequisite
cmn-Hans-CN	悬链线	
cmn-Latn-CN	xuánliànxiàn	
deu-Latn-DE	Katenoide . Kettenkurve . Kettenlinie . Seilkurve	
eng-Latn-US	catenary	
fra-Latn-FR	chaînette	
jpn-Hrkt-JP	けんすいきょくせん . けんすいせん . カテナリーきょくせん	
jpn-Jpan-JP	懸垂曲線 . 懸垂線 . カテナリー曲線	
rus-Cyrl-RU	цепна́я ли́ния	
