locale	concept	prerequisite
cmn-Hans-CN	被解释变量 . 反应变量 . 果变量 . 响应变量 . 应变量 . 依变量 . 因变量	
cmn-Latn-CN	bèijiěshì biànliàng . fǎnyìng biànliàng . guǒbiànliàng . xiǎngyìng biànliàng . yìngbiànliàng . yībiànliàng . yīnbiànliàng	
deu-Latn-DE	abhängige Variable	
eng-Latn-US	dependent variable	
fra-Latn-FR	variable dépendante	
jpn-Hrkt-JP	じゅうぞくへんすう	
jpn-Jpan-JP	従属変数	
rus-Cyrl-RU	зави́симая переме́нная	
