locale	concept	prerequisite
cmn-Hans-CN	偶函数	函数
cmn-Latn-CN	ǒuhánshù	hánshù
deu-Latn-DE	gerade Funktion	Funktion
eng-Latn-US	even function	function
fra-Latn-FR	fonction paire	fonction
jpn-Hrkt-JP	ぐうかんすう	
jpn-Jpan-JP	偶関数	
rus-Cyrl-RU	чётная фу́нкция	
