locale	concept	prerequisite
cmn-Hans-CN	平方	乘法
cmn-Latn-CN	píngfāng	chéngfǎ
deu-Latn-DE	Quadrat [n] (Algebra)	Multiplikation
eng-Latn-US	square (algebra)	multiplication
fra-Latn-FR	carré (algèbre)	multiplication
jpn-Hrkt-JP	じじょう . にじょう . へいほう	じょうほう
jpn-Jpan-JP	自乗 . 二乗 . 平方	乗法
rus-Cyrl-RU	квадра́т (а́лгебра)	умноже́ние
