locale	concept	prerequisite
cmn-Hans-CN	贝塞尔滤波器	
cmn-Latn-CN	Bèisàn’ěr lǜbōqì	
deu-Latn-DE	Bessel-Filter [n/m]	
eng-Latn-US	Bessel filter	
fra-Latn-FR	filtre de Bessel . filtre de Thompson	
jpn-Hrkt-JP	ベッセルフィルタ	
jpn-Jpan-JP	ベッセルフィルタ	
rus-Cyrl-RU	фильтр Бессе́ля/Бесселя́	
