locale	concept	prerequisite
cmn-Hans-CN	狄利克雷函数	函数 _ 无理数
cmn-Latn-CN	Dílìkèléi hánshù	hánshù _ wúlǐshù
deu-Latn-DE	Dirichlet-Funktion	Funktion _ irrationale Zahl
eng-Latn-US	Dirichlet function	function _ irrational number
fra-Latn-FR	fonction de Dirichlet	fonction _ nombre irrationnel
jpn-Hrkt-JP	ディリクレのかんすう	 _ むりすう
jpn-Jpan-JP	ディリクレの関数	 _ 無理数
rus-Cyrl-RU	функция Дирихле́	 _ иррациона́льное число́
