locale	concept	prerequisite
cmn-Hans-CN	有理数	分母 _ 分子（分数） _ 整数
cmn-Latn-CN	yǒulǐshù	fēnmǔ _ fěnzǐ (fēnshù) _ zhěngshù
deu-Latn-DE	rationale Zahl	Ganzzahl [f] . ganze Zahl _ Nenner _ Zähler
eng-Latn-US	rational number	denominator _ integer _ numerator
fra-Latn-FR	nombre rationnel	dénominateur _ enti _ numérateur
jpn-Hrkt-JP	ゆうりすう	せいすう _ ぶんし（ぶんすう） _ ぶんぼ
jpn-Jpan-JP	有理数	整数 _ 分子（分数） _ 分母
rus-Cyrl-RU	рационáльное числó	знамена́тель _ це́лое число́ _ числи́тель
zxx-Zmth-ZZ	QQ . ن	 _  _ ZZ . ص
