locale	concept	prerequisite
cmn-Hans-CN	电荷守恒定律	
cmn-Latn-CN	diànhè shǒuhéng dìnglǜ	
deu-Latn-DE	Ladungserhaltungssatz [m]	
eng-Latn-US	law of charge conservation	
fra-Latn-FR	loi de conservation de la charge électrique	
jpn-Hrkt-JP	でんかほぞんそく . でんきりょうほぞんそく	
jpn-Jpan-JP	電荷保存則 . 電気量保存則	
rus-Cyrl-RU	зако́н сохране́ния электри́ческого заря́да	
