locale	concept	prerequisite
cmn-Hans-CN	圆周率	圆周 _ 直径
cmn-Latn-CN	yuánzhōulǜ	yuánzhōu _ zhíjìng
deu-Latn-DE	Archimedes-Konstante [f] . Kreiszahl [f] . Ludolfsche Zahl . Ludolphsche Zahl	Durchmess _ Kreisumfang
eng-Latn-US	Archimedes’ constant . pi	circumference _ diameter
fra-Latn-FR	constante [f] d’Archimède . pi	circonférence _ diamètre [m]
jpn-Hrkt-JP	えんしゅうりつ	えんしゅう _ けい
jpn-Jpan-JP	円周率	円周 _ 径
rus-Cyrl-RU	пи	диа́метр _ окру́жность (верёвка)
zxx-Zmth-ZZ	pi	 _ 
