locale	concept	prerequisite
cmn-Hans-CN	黄金比例 . 黄金分割比 . 黄金分割率	比率 . 比值 _ 和
cmn-Latn-CN	huángjīn bǐlì . huángjīn fēngēbǐ . huángjīn fēngēlǜ	bǐlǜ . bǐzhí _ hé
deu-Latn-DE	Goldener Schnitt	Summe _ Verhältnis
eng-Latn-US	golden ratio	ratio _ sum
fra-Latn-FR	nombre [m] d’or . proportion dorée . section dorée	rapport _ somme [f]
jpn-Hrkt-JP	おうごんひ	ひ _ わ
jpn-Jpan-JP	黄金比	比 _ 和
rus-Cyrl-RU	золота́я пропо́рция . золото́е сече́ние	соотноше́ние _ су́мма
zxx-Zmth-ZZ	phi . varphi	 _ 
