locale	subject
cmn-Hans-CN	一般系统理论
cmn-Latn-CN	yìbān xìtǒng lǐlùn
deu-Latn-DE	allgemeine Systemtheorie
eng-Latn-US	general systems theory
fra-Latn-FR	théorie générale des systèmes [m-pl]
jpn-Hrkt-JP	いっぱんシステムりろん
jpn-Jpan-JP	一般システム理論
rus-Cyrl-RU	о́бщая тео́рия систе́м
