locale	concept	prerequisite
cmn-Hans-CN	高斯分布 . 正态分布	 _ 
cmn-Latn-CN	Gāosī fēnbù . zhèngtài fēnbù	 _ 
deu-Latn-DE	Gauß-Verteilung . Normalverteilung	 _ 
eng-Latn-US	Gauss distribution . Laplace–Gauss distribution . normal distribution	 _ 
fra-Latn-FR	loi de Gauss . loi de Laplace-Gauss . loi gaussienne . loi normale	 _ 
jpn-Hrkt-JP	せいきぶんぷ . ガウスぶんぷ	 _ 
jpn-Jpan-JP	正規分布 . ガウス分布	 _ 
rus-Cyrl-RU	норма́льное распределе́ние . распределе́нием Га́усса . распределе́нием Га́усса — Лапла́са	 _ 
