locale	concept	prerequisite
cmn-Hans-CN	互斥事件	事件 . 随机事件
cmn-Latn-CN	hùchì shìjiàn	shìjiàn . suíjī shìjiàn
eng-Latn-US	mutually exclusive events	event
rus-Cyrl-RU	несовмести́мые собы́тия [с-мн]	случа́йное собы́тие
