locale	subject
cmn-Hans-CN	交换代数
cmn-Latn-CN	jiāohuàn dàishù
deu-Latn-DE	kommutative Algebra
eng-Latn-US	commutative algebra
fra-Latn-FR	algèbre commutative
jpn-Hrkt-JP	かかんかんろん
jpn-Jpan-JP	可換環論
rus-Cyrl-RU	коммутати́вная а́лгебр
