locale	concept	prerequisite
cmn-Hans-CN	本生灯	
cmn-Latn-CN	Běnshēng dēng	
deu-Latn-DE	Bunsenbrenner	
eng-Latn-US	Bunsen burner	
fra-Latn-FR	bec [m] Bunsen	
jpn-Hrkt-JP	ブンゼンバーナー	
jpn-Jpan-JP	ブンゼンバーナー	
rus-Cyrl-RU	горе́лка Бунзена	
