locale	concept	prerequisite
cmn-Hans-CN	容量瓶	
cmn-Latn-CN	róngliàngpíng	
deu-Latn-DE	Maßkolben . Messkolben	
eng-Latn-US	graduated flask . measuring flask . volumetric flask	
fra-Latn-FR	fiole jaugée	
jpn-Hrkt-JP	メスフラスコ	
jpn-Jpan-JP	メスフラスコ	
