locale	concept	prerequisite
cmn-Hans-CN	振动	 _ 
cmn-Latn-CN	zhèndòng	 _ 
deu-Latn-DE	Erschütterung . Vibration	 _ 
eng-Latn-US	vibration	 _ 
fra-Latn-FR	vibration	 _ 
jpn-Hrkt-JP	しんどう	 _ 
jpn-Jpan-JP	振動	 _ 
rus-Cyrl-RU	вибра́ция	 _ 
