locale	concept	prerequisite
cmn-Hans-CN	乳浊液	
cmn-Latn-CN	rǔzhuóyè	
deu-Latn-DE	Emulsion	
eng-Latn-US	emulsion	
fra-Latn-FR	émulsion	
jpn-Hrkt-JP	にゅうざい . にゅうだくえき . エマルション . エマルジョン	
jpn-Jpan-JP	乳剤 . 乳濁液 . エマルション . エマルジョン	
rus-Cyrl-RU	эму́льсия	
