locale	concept	prerequisite
cmn-Hans-CN	等比数列	零 _ 序列
cmn-Latn-CN	děngbǐ shùliè	líng _ xùliè
deu-Latn-DE	geometrische Folge	Folge . Sequenz _ Null [f]
eng-Latn-US	geometric progression . geometric sequence	sequence _ zero
fra-Latn-FR	suite [f] géométrique	suite [f] (mathématiques) _ zéro [m]
jpn-Hrkt-JP	きかすうれつ . とうひすうれつ	れい . ゼロ _ れつ（すうがく）
jpn-Jpan-JP	幾何数列 . 等比数列	零 . ゼロ _ 列（数学）
