locale	concept	prerequisite
cmn-Hans-CN	等谐数列 . 调和数列	
cmn-Latn-CN	děngxié shùliè . tiáohé shùliè	
deu-Latn-DE	harmonische Folge	
eng-Latn-US	harmonic sequence	
fra-Latn-FR	suite harmonique	
jpn-Hrkt-JP	ちょうわすうれつ	
jpn-Jpan-JP	調和数列	
rus-Cyrl-RU	гармони́ческая после́довательность . гармони́ческая прогре́ссия	
