locale	subject
cmn-Hans-CN	液压与气动
cmn-Latn-CN	yèyā yǔ qìdòng
deu-Latn-DE	Hydraulik und Pneumatik
eng-Latn-US	hydraulics and pneumatics
fra-Latn-FR	hydraulique [f] et pneumatique [f]
jpn-Hrkt-JP	ゆあつとくうあつ
jpn-Jpan-JP	油圧と空圧
rus-Cyrl-RU	гидра́влика и пневма́тик
