locale	concept	prerequisite
cmn-Hans-CN	立体角	
cmn-Latn-CN	lìtǐjiǎo	
deu-Latn-DE	Raumwinkel [m]	
eng-Latn-US	solid angle	
fra-Latn-FR	angle [m] solide	
jpn-Hrkt-JP	りったいかく	
jpn-Jpan-JP	立体角	
pes-Aran-IR	زاویهٔ فضایی	
rus-Cyrl-RU	теле́сный у́гол	
zxx-Zmth-ZZ	Omega	
