locale	subject
cmn-Hans-CN	立体几何
cmn-Latn-CN	lìtǐ jǐhé
deu-Latn-DE	Raumgeometrie . Stereometrie . räumliche Geometrie
eng-Latn-US	solid geometry . stereometry
fra-Latn-FR	géométrie dans l’espace [m]
jpn-Hrkt-JP	りったいきかがく
jpn-Jpan-JP	立体幾何学
rus-Cyrl-RU	стереоме́три
