locale	subject
cmn-Hans-CN	复分析
cmn-Latn-CN	fùfēnxī
deu-Latn-DE	Funktionentheorie
eng-Latn-US	complex analysis
fra-Latn-FR	analyse [f] complexe
jpn-Hrkt-JP	ふくそかいせき
jpn-Jpan-JP	複素解析
rus-Cyrl-RU	ко́мпле́ксный ана́лиз . тео́рия фу́нкций ко́мпле́ксного переме́нного . тео́рия фу́нкций ко́мпле́ксной переме́нно
