locale	concept	prerequisite
cmn-Hans-CN	核链式反应	 _ 链反应 . 连锁反应
cmn-Latn-CN	hé liànshì fǎnyìng	 _ liànfǎnyìng . liánsuǒ fǎnyìng
deu-Latn-DE	Kernkettenreaktion	 _ Kettenreaktion
eng-Latn-US	nuclear chain reaction	 _ chain reaction
jpn-Hrkt-JP	げんしかくれんさはんのう	 _ れんさはんのう
jpn-Jpan-JP	原子核連鎖反応	 _ 連鎖反応
rus-Cyrl-RU	цепна́я я́дерная реа́кция	 _ цепна́я реа́кция
