locale	concept	prerequisite
cmn-Hans-CN	代数结构	 _ 
cmn-Latn-CN	dàishù jiégòu	 _ 
deu-Latn-DE	algebraische Struktur	 _ 
eng-Latn-US	algebraic structure	 _ 
fra-Latn-FR	structure algébrique	 _ 
jpn-Hrkt-JP	だいすうてきこうぞう	 _ 
jpn-Jpan-JP	代数的構造	 _ 
rus-Cyrl-RU	математи́ческая структу́ра	 _ 
