locale	concept	prerequisite
cmn-Hans-CN	矛盾律 . 无矛盾律	思维规律 . 思考规律
cmn-Latn-CN	máodùnlǜ . wúmáodùn lǜ	sīkǎo guīlǜ . sīwéi guīlǜ
deu-Latn-DE	Satz [m] vom Widerspruch . Satz [m] vom ausgeschlossenen Widerspruch	Denkgesetz [n]
eng-Latn-US	law of contradiction . law of non-contradiction . principle of contradiction . principle of non-contradiction	law of thought
fra-Latn-FR	principe [m] de contradiction . principe [m] de non-contradiction	loi [f] de la pensée
jpn-Hrkt-JP	むじゅんりつ . むむじゅんりつ	しこうのげんり
jpn-Jpan-JP	矛盾律 . 無矛盾律	思考の原理
rus-Cyrl-RU	зако́н непротиворечия . зако́н противоречия	
