locale	concept	prerequisite
cmn-Hans-CN	双条件	逻辑联结词 . 逻辑运算符
cmn-Latn-CN	shuāngtiáojiàn	luóji liánjié cí . luóji yùnsuàn fú
deu-Latn-DE	Bikonditional [n]	Logische Verknüpfung
eng-Latn-US	material biconditional	logical connective . logical operator . sentential connective . sentential operator
fra-Latn-FR	biconditionnel . biconditionnel matériel	connecteur [m] logique
zxx-Zmth-ZZ	harr	
