locale	concept	prerequisite
cmn-Hans-CN	充足理由律	
cmn-Latn-CN	chōngzú lǐyóu lǜ	
deu-Latn-DE	Satz [m] vom zureichenden Grund [m]	
eng-Latn-US	principle of sufficient reason	
fra-Latn-FR	principe [f] de raison suffisante	
jpn-Hrkt-JP	じゅうそくりゆうりつ	
jpn-Jpan-JP	充足理由律	
rus-Cyrl-RU	зако́н доста́точного основа́ния	
