locale	subject
cmn-Hans-CN	法律科学 . 法律学 . 法学
cmn-Latn-CN	fǎlǜ kēxué . fǎlǜxué . fǎxué
deu-Latn-DE	Jura . Jurisprudenz . Juristerei . Rechtswissenschaft
eng-Latn-US	jurisprudence
fra-Latn-FR	théorie du droit
jpn-Hrkt-JP	ほうがく [0] . ほうりつがく
jpn-Jpan-JP	法学 . 法律学
rus-Cyrl-RU	юриспруде́нция
