locale	concept	prerequisite
cmn-Hans-CN	卡诺定理	
cmn-Latn-CN	Kǎnuò dìnglǐ	
deu-Latn-DE	Satz [m] von Carnot	
eng-Latn-US	Carnot’s rule . Carnot’s theorem	
fra-Latn-FR	théorème de Carnot	
jpn-Hrkt-JP	カルノーのげんり . カルノーのていり	
jpn-Jpan-JP	カルノーの原理 . カルノーの定理	
rus-Cyrl-RU	теоре́ма Карно́	
