locale	concept	prerequisite
cmn-Hans-CN	卡诺热机	
cmn-Latn-CN	Kǎnuò rèjī	
deu-Latn-DE	Carnot-Maschine	
eng-Latn-US	Carnot heat engine	
fra-Latn-FR	moteur Carnot	
jpn-Hrkt-JP	カルノーきかん	
jpn-Jpan-JP	カルノー機関	
rus-Cyrl-RU	теплова́я маши́на Карно́ . теплово́й дви́гатель Карно́	
