locale	concept	prerequisite
cmn-Hans-CN	永动机	
cmn-Latn-CN	yǒngdòngjī	
deu-Latn-DE	Perpetuum mobile	
eng-Latn-US	perpetual motion machine	
fra-Latn-FR	mouvement perpétuel	
jpn-Hrkt-JP	えいきゅうきかん	
jpn-Jpan-JP	永久機関	
rus-Cyrl-RU	ве́чный дви́гатель	
