locale	concept	prerequisite
cmn-Hans-CN	制冷	
cmn-Latn-CN	zhìlěng	
deu-Latn-DE	Abkühlung . Entwärmung . Kühlung	
eng-Latn-US	refrigeration	
fra-Latn-FR	réfrigération	
jpn-Hrkt-JP	れいぞう	
jpn-Jpan-JP	冷蔵	
rus-Cyrl-RU	иску́сственное охлажде́ние	
