locale	concept	prerequisite
cmn-Hans-CN	热传导	
cmn-Latn-CN	rèchuándǎo	
deu-Latn-DE	Konduktion . Wärmediffusion . Wärmeleitung	
eng-Latn-US	thermal conduction	
fra-Latn-FR	conduction thermique . diffusion thermique	
jpn-Hrkt-JP	ねつでんどう	
jpn-Jpan-JP	熱伝導	
rus-Cyrl-RU	теплопрово́дность	
