locale	concept	prerequisite
cmn-Hans-CN	不变子群 . 正规子群	
cmn-Latn-CN	búbiàn zǐqún . zhèngguī zǐqún	
deu-Latn-DE	Normalteil	
eng-Latn-US	invariant subgroup . normal subgroup . self-conjugate subgroup	
fra-Latn-FR	sous-groupe distingué . sous-groupe invariant . sous-groupe normal	
jpn-Hrkt-JP	せいきぶぶんぐん	
jpn-Jpan-JP	正規部分群	
rus-Cyrl-RU	инвариа́нтная подгру́ппа . норма́льная подгру́ппа . норма́льный дели́тель	
