locale	concept	prerequisite
cmn-Hans-CN	泰勒展开	
cmn-Latn-CN	Tàilè zhǎnkāi	
deu-Latn-DE	Taylor-Entwicklung	
eng-Latn-US	Taylor expansion	
fra-Latn-FR	développement en série de Taylor	
jpn-Hrkt-JP	テイラーてんかい	
jpn-Jpan-JP	テイラー展開	
