locale	concept	prerequisite
cmn-Hans-CN	电流	
cmn-Latn-CN	diànliú	
deu-Latn-DE	elektrischer Strom	
eng-Latn-US	electric current	
fra-Latn-FR	courant électrique	
jpn-Hrkt-JP	でんりゅう	
jpn-Jpan-JP	電流	
rus-Cyrl-RU	электри́ческий ток . электрото́к	
