locale	concept	prerequisite
cmn-Hans-CN	佩尔数	
cmn-Latn-CN	Pèi’ěr shù	
deu-Latn-DE	Pell-Zahl [f]	
eng-Latn-US	Pell number	
fra-Latn-FR	nombre [m] de Pell	
jpn-Hrkt-JP	ぺるすう	
jpn-Jpan-JP	ペル数	
rus-Cyrl-RU	число́ Пелля	
