locale	concept	prerequisite
cmn-Hans-CN	超越数	代数数
cmn-Latn-CN	chāoyuèshù	dàishùshù
deu-Latn-DE	transzendente Zahl	algebraische Zahl
eng-Latn-US	transcendental number	algebraic number
fra-Latn-FR	nombre [m] transcendant	nombre [m] algébrique
jpn-Hrkt-JP	ちょうえつすう	だいすうてきすう
jpn-Jpan-JP	超越数	代数的数
rus-Cyrl-RU	трансценде́нтное число́	алгебраи́ческое число́
