locale	concept	prerequisite
cmn-Hans-CN	厘米	米
cmn-Latn-CN	límǐ	mǐ
deu-Latn-DE	Centimeter	Meter
eng-Latn-US	centimeter	meter
fra-Latn-FR	centimètre [m]	mètre [m]
jpn-Hrkt-JP	センチ . センチメートル	メートル
jpn-Jpan-JP	センチ . センチメートル	メートル
rus-Cyrl-RU	сантиме́тр	ме́тр
