locale	concept	prerequisite
cmn-Hans-CN	微米	米
cmn-Latn-CN	wēimǐ	mǐ
deu-Latn-DE	Mikrometer	Meter
eng-Latn-US	micrometer	meter
fra-Latn-FR	micromètre [m]	mètre [m]
jpn-Hrkt-JP	マイクロメートル	メートル
jpn-Jpan-JP	マイクロメートル	メートル
rus-Cyrl-RU	микроме́тр	ме́тр
