locale	concept	prerequisite
cmn-Hans-CN	毫米	米
cmn-Latn-CN	háomǐ	mǐ
deu-Latn-DE	Millimeter	Meter
eng-Latn-US	millimeter	meter
fra-Latn-FR	milimètre [m]	mètre [m]
jpn-Hrkt-JP	ミリ . ミリメートル	メートル
jpn-Jpan-JP	ミリ . ミリメートル	メートル
rus-Cyrl-RU	миллиме́тр	ме́тр
