locale	concept	prerequisite
cmn-Hans-CN	欧拉方法	
cmn-Latn-CN	Ōulā fāngfǎ	
deu-Latn-DE	 Euler-Cauchy-Verfahren . Euler-vorwärts-Verfahren . eulersches Polygonzugverfahren . explizites Euler-Verfahren	
eng-Latn-US	Euler method . forward Euler method	
fra-Latn-FR	méthode [f] d’Euler	
jpn-Hrkt-JP	オイラーほう	
jpn-Jpan-JP	オイラー法	
rus-Cyrl-RU	метод Эйлера	
