locale	subject
cmn-Hans-CN	证明论
cmn-Latn-CN	zhèngmínglùn
deu-Latn-DE	Beweistheorie
eng-Latn-US	proof theory
fra-Latn-FR	théorie de la démonstration . théorie de la preuve
jpn-Hrkt-JP	しょうめいろん
jpn-Jpan-JP	証明論
