locale	concept	prerequisite
cmn-Hans-CN	润滑剂	润滑
cmn-Latn-CN	rùnhuájì	rùnhuá
deu-Latn-DE	Schmiermittel . Schmierstoff [m]	Schmierung
eng-Latn-US	lubricant	lubrication
fra-Latn-FR	lubricant	graissage . lubrification
jpn-Hrkt-JP	じゅんかつざい	じゅんかつ
jpn-Jpan-JP	潤滑剤	潤滑
rus-Cyrl-RU	сма́зочный материа́л	
